[
    {
		"name" : "id",
		"type" : "string",
        "description" : "Identificador da venda.",
        "min-length": 1,
        "max-length": 50,	
        "required"  : true
    },
    {
        "name": "data_hora_lancamento",
        "type": "string",
        "description": "Data e hora da venda. Esta informação deve ser enviada no formato 'YYYY-MM-DDTHH:MM:SS'; por exemplo 2017-08-20T14:55:08 corresponde ao momento 20-08-2017 14:55:08.",
        "pattern": "\\d{4}-\\d{2}-\\d{2}T\\d{2}:\\d{2}:\\d{2}",
        "min-length": 19,
        "max-length": 19,
        "required": true
    },
    {
		"name" : "cnpj_emitente",
        "type" : "string",
        "type-value" : "cnpj",	
        "pattern" : "^\\d{14}$",
        "description" : "CNPJ do loja que realizou a venda.",
        "min-length": 14,
        "max-length": 14,
        "required"  : true
    },
    {
		"name" : "id_pdv",
		"type" : "string",
        "pattern" : "\\d{1,10}",
        "description" : "Identificador do ponto de venda",
        "min-length": 1,
        "max-length": 10
	},
    {
		"name" : "acrescimo_cupom",
		"type" : "float",
        "description" : "Valor de acréscimo na venda. Este valor deve vir com 4 casas decimais.",
        "min-length": 1,
        "max-length": 20,
        "min-value" : 0,	
        "required"  : true
	},
    {
		"name" : "desconto_cupom",
		"type" : "float",
        "description" : "Valor de desconto na venda. Este valor deve vir com 4 casas decimais.",
        "min-length": 1,
        "max-length": 20,	
        "min-value" : 0,
        "required"  : true
	},
    {
		"name" : "flag_cancelamento_cupom",
		"type" : "string",
        "description" : "Indica se esta venda foi cancelada ou não:",
        "min-length": 1,
        "max-length": 1,
        "enum": "[S, N]",
        "required" : true
	},
    {
		"name" : "frete_cupom",
		"type" : "float",
        "pattern" : "",
        "min-value" : 0,
        "description" : "Valor de frete da venda"
    },
    {
		"name" : "origem_coleta",
		"type" : "string",
        "pattern" : "(ColetorERP|API)\\|([0-9]{14}|[a-zA-Z]+)",
        "description" : "",
        "required": true
    },
    {
		"name" : "total_cupom",
		"type" : "float",
        "pattern" : "",
        "description" : "",
        "min-value" : 0,
        "required": true
    },
    {
		"name" : "items",
		"type" : "list",
        "description" : "Informações de itens do sellout",
        "required": true
    }
]
